<svg xmlns="http://www.w3.org/2000/svg" xmlns:xlink="http://www.w3.org/1999/xlink" width="320" height="113.927" viewBox="0 0 320 113.927">
  <defs>
    <clipPath id="clip-path">
      <rect width="320" height="113.927" fill="none"/>
    </clipPath>
    <clipPath id="clip-path-2">
      <rect width="320" height="108.547" fill="none"/>
    </clipPath>
    <linearGradient id="linear-gradient" x1="0.5" x2="0.52" y2="0.767" gradientUnits="objectBoundingBox">
      <stop offset="0" stop-color="#0cae9a"/>
      <stop offset="1" stop-color="#0071b4"/>
    </linearGradient>
    <linearGradient id="linear-gradient-2" x1="-32.108" y1="-0.588" x2="-31.071" y2="-0.588" gradientUnits="objectBoundingBox">
      <stop offset="0" stop-color="#40d5e6"/>
      <stop offset="1" stop-color="#57f"/>
    </linearGradient>
    <linearGradient id="linear-gradient-3" x1="-20.12" y1="13.618" x2="-20.12" y2="12.467" xlink:href="#linear-gradient-2"/>
    <linearGradient id="linear-gradient-4" x1="-69.307" y1="-0.583" x2="-68.26" y2="-0.583" xlink:href="#linear-gradient-2"/>
    <linearGradient id="linear-gradient-5" x1="-24.984" y1="11.642" x2="-24.984" y2="10.504" xlink:href="#linear-gradient-2"/>
    <linearGradient id="linear-gradient-6" x1="0" y1="0.5" x2="1" y2="0.5" xlink:href="#linear-gradient-2"/>
    <linearGradient id="linear-gradient-7" x1="-23.652" y1="0.5" x2="-22.652" y2="0.5" xlink:href="#linear-gradient-2"/>
    <linearGradient id="linear-gradient-8" x1="-24.638" y1="0.5" x2="-23.638" y2="0.5" xlink:href="#linear-gradient-2"/>
    <linearGradient id="linear-gradient-9" x1="-32.93" y1="0.5" x2="-31.93" y2="0.5" xlink:href="#linear-gradient-2"/>
    <linearGradient id="linear-gradient-10" x1="-28.755" y1="0.5" x2="-27.755" y2="0.5" xlink:href="#linear-gradient-2"/>
    <linearGradient id="linear-gradient-11" x1="-0.038" y1="0.5" x2="0.962" y2="0.5" gradientUnits="objectBoundingBox">
      <stop offset="0" stop-color="#ff9340"/>
      <stop offset="1" stop-color="#ffce45"/>
    </linearGradient>
    <linearGradient id="linear-gradient-12" x1="-0.038" y1="0.5" x2="0.962" y2="0.5" gradientUnits="objectBoundingBox">
      <stop offset="0" stop-color="#c97332"/>
      <stop offset="1" stop-color="#ffce45"/>
    </linearGradient>
    <filter id="Path_72" x="97.099" y="93.639" width="22.121" height="20.288" filterUnits="userSpaceOnUse">
      <feOffset dy="3" input="SourceAlpha"/>
      <feGaussianBlur stdDeviation="3" result="blur"/>
      <feFlood flood-opacity="0.161"/>
      <feComposite operator="in" in2="blur"/>
      <feComposite in="SourceGraphic"/>
    </filter>
    <filter id="Path_74" x="86.431" y="93.639" width="22.929" height="20.279" filterUnits="userSpaceOnUse">
      <feOffset dy="3" input="SourceAlpha"/>
      <feGaussianBlur stdDeviation="3" result="blur-2"/>
      <feFlood flood-opacity="0.161"/>
      <feComposite operator="in" in2="blur-2"/>
      <feComposite in="SourceGraphic"/>
    </filter>
    <linearGradient id="linear-gradient-13" x1="1.11" y1="0.5" x2="0.09" y2="0.5" xlink:href="#linear-gradient-2"/>
  </defs>
  <g id="Repeat_Grid_5" data-name="Repeat Grid 5" clip-path="url(#clip-path)">
    <g id="Group_1175" data-name="Group 1175" transform="translate(0 -20)">
      <g id="Repeat_Grid_4" data-name="Repeat Grid 4" transform="translate(0 25)" clip-path="url(#clip-path-2)">
        <g transform="translate(0 -25)">
          <path id="Path_5" data-name="Path 5" d="M0,0H320V108.547H0Z" transform="translate(0 25)" fill="url(#linear-gradient)"/>
        </g>
      </g>
      <g id="Group_5" data-name="Group 5" transform="translate(-261.395 -293.782)" opacity="0.154">
        <g id="Group_3" data-name="Group 3" transform="translate(285.41 350.411)">
          <path id="Path_1" data-name="Path 1" d="M458.39,904.383c1.414,3.085,2.208,6,1.167,7.306a1.7,1.7,0,0,1-.2.212c-.8.706-2.378.722-5.041-.329-7.085-2.8-7.421-7.629-8.854-12.345-1.413-4.658-6.347-3.871-6.473-3.849C450.486,891.372,455.992,899.154,458.39,904.383Z" transform="translate(-438.988 -894.272)" fill="url(#linear-gradient-2)"/>
          <g id="Group_2" data-name="Group 2" transform="translate(10.075 4.299)">
            <path id="Path_2" data-name="Path 2" d="M628.78,983.9a1.706,1.706,0,0,1-.2.212,16.483,16.483,0,0,1-5.081-4.41,28.336,28.336,0,0,1-1.548-2.985,17.785,17.785,0,0,0-3.664-5.728l.192-.207a18.035,18.035,0,0,1,3.727,5.816,27.571,27.571,0,0,0,1.532,2.953C624.907,981.409,627.482,983.116,628.78,983.9Z" transform="translate(-618.285 -970.778)" fill="url(#linear-gradient-3)"/>
          </g>
        </g>
        <g id="Group_5-2" data-name="Group 5" transform="translate(295.09 343.829)">
          <path id="Path_3" data-name="Path 3" d="M619.754,795.081c-.083.205-.137.321-.143.334-.022-.113-.043-.226-.064-.334-.945-4.843-2.209-5.349-6-9.585-3.876-4.333-1.647-8.369-1.647-8.369C624.885,780.878,620.637,792.916,619.754,795.081Z" transform="translate(-611.263 -777.127)" fill="url(#linear-gradient-4)"/>
          <g id="Group_4" data-name="Group 4" transform="translate(3.794 5.058)">
            <path id="Path_4" data-name="Path 4" d="M683.484,880.04c-.083.205-.137.321-.143.334-.022-.113-.043-.226-.064-.334.421-4.187-2.105-9.1-2.9-9.981a9.245,9.245,0,0,1-1.518-2.641c-.032-.078-.062-.153-.072-.17l.183-.1c.016.028.037.081.084.2a9.037,9.037,0,0,0,1.48,2.578A17.054,17.054,0,0,1,683.484,880.04Z" transform="translate(-678.787 -867.144)" fill="url(#linear-gradient-5)"/>
          </g>
        </g>
        <g id="Group_12" data-name="Group 12" transform="translate(403.642 388.259)">
          <g id="Group_10" data-name="Group 10" transform="translate(3.013 4.157)">
            <g id="Group_9" data-name="Group 9">
              <g id="Group_8" data-name="Group 8">
                <g id="Group_7" data-name="Group 7">
                  <g id="Group_6" data-name="Group 6">
                    <path id="Path_5-2" data-name="Path 5" d="M2044.881,686.715l-1.6-2.62a.456.456,0,1,1,.778-.475l1.132,1.853,3.008-1.781a.456.456,0,0,1,.465.785Z" transform="translate(-2043.214 -683.402)" fill="#f0c141"/>
                  </g>
                </g>
              </g>
            </g>
          </g>
          <g id="Group_11" data-name="Group 11" transform="translate(0 0)">
            <path id="Path_6" data-name="Path 6" d="M1995.341,620.924a5.755,5.755,0,1,1,5.755-5.755A5.761,5.761,0,0,1,1995.341,620.924Zm0-10.687a4.933,4.933,0,1,0,4.933,4.933A4.938,4.938,0,0,0,1995.341,610.236Z" transform="translate(-1989.586 -609.414)" fill="#f0c141"/>
          </g>
        </g>
        <g id="Group_19" data-name="Group 19" transform="translate(427.777 407.177)">
          <g id="Group_17" data-name="Group 17" transform="translate(1.862 2.569)">
            <g id="Group_16" data-name="Group 16">
              <g id="Group_15" data-name="Group 15">
                <g id="Group_14" data-name="Group 14">
                  <g id="Group_13" data-name="Group 13">
                    <path id="Path_7" data-name="Path 7" d="M1738.406,557.344l-.989-1.619a.282.282,0,1,1,.481-.294l.7,1.145,1.859-1.1a.282.282,0,0,1,.287.485Z" transform="translate(-1737.376 -555.297)" fill="#f0c141"/>
                  </g>
                </g>
              </g>
            </g>
          </g>
          <g id="Group_18" data-name="Group 18" transform="translate(0 0)">
            <path id="Path_8" data-name="Path 8" d="M1707.792,516.687a3.556,3.556,0,1,1,3.556-3.556A3.56,3.56,0,0,1,1707.792,516.687Zm0-6.6a3.048,3.048,0,1,0,3.048,3.048A3.052,3.052,0,0,0,1707.792,510.082Z" transform="translate(-1704.236 -509.574)" fill="#f0c141"/>
          </g>
        </g>
        <g id="Group_26" data-name="Group 26" transform="translate(303.258 325.863)">
          <g id="Group_24" data-name="Group 24" transform="translate(2.857 3.941)">
            <g id="Group_23" data-name="Group 23">
              <g id="Group_22" data-name="Group 22">
                <g id="Group_21" data-name="Group 21">
                  <g id="Group_20" data-name="Group 20">
                    <path id="Path_9" data-name="Path 9" d="M1403.709,432.625l-1.517-2.484a.432.432,0,0,1,.738-.451l1.073,1.756,2.852-1.688a.432.432,0,1,1,.44.744Z" transform="translate(-1402.128 -429.484)" fill="#f0c141"/>
                  </g>
                </g>
              </g>
            </g>
          </g>
          <g id="Group_25" data-name="Group 25" transform="translate(0 0)">
            <path id="Path_10" data-name="Path 10" d="M1356.747,370.256a5.455,5.455,0,1,1,5.455-5.455A5.462,5.462,0,0,1,1356.747,370.256Zm0-10.131a4.676,4.676,0,1,0,4.676,4.676A4.681,4.681,0,0,0,1356.747,360.124Z" transform="translate(-1351.291 -359.345)" fill="#f0c141"/>
          </g>
        </g>
        <g id="Group_33" data-name="Group 33" transform="translate(322.132 328.709)">
          <g id="Group_31" data-name="Group 31" transform="translate(1.888 2.604)">
            <g id="Group_30" data-name="Group 30">
              <g id="Group_29" data-name="Group 29">
                <g id="Group_28" data-name="Group 28">
                  <g id="Group_27" data-name="Group 27">
                    <path id="Path_11" data-name="Path 11" d="M1127.167,556.472l-1-1.641a.285.285,0,1,1,.487-.3l.709,1.161,1.884-1.115a.286.286,0,0,1,.291.491Z" transform="translate(-1126.123 -554.396)" fill="#f0c141"/>
                  </g>
                </g>
              </g>
            </g>
          </g>
          <g id="Group_32" data-name="Group 32" transform="translate(0 0)">
            <path id="Path_12" data-name="Path 12" d="M1096.136,515.261a3.6,3.6,0,1,1,3.6-3.6A3.609,3.609,0,0,1,1096.136,515.261Zm0-6.695a3.09,3.09,0,1,0,3.09,3.09A3.093,3.093,0,0,0,1096.136,508.566Z" transform="translate(-1092.531 -508.051)" fill="#f0c141"/>
          </g>
        </g>
        <g id="Group_40" data-name="Group 40" transform="translate(296.47 313.782)">
          <g id="Group_38" data-name="Group 38" transform="translate(2.363 3.26)">
            <g id="Group_37" data-name="Group 37">
              <g id="Group_36" data-name="Group 36">
                <g id="Group_35" data-name="Group 35">
                  <g id="Group_34" data-name="Group 34">
                    <path id="Path_13" data-name="Path 13" d="M872.135,407.4l-1.255-2.054a.357.357,0,1,1,.61-.373l.887,1.453,2.359-1.4a.357.357,0,0,1,.364.615Z" transform="translate(-870.828 -404.799)" fill="#f0c141"/>
                  </g>
                </g>
              </g>
            </g>
          </g>
          <g id="Group_39" data-name="Group 39" transform="translate(0 0)">
            <path id="Path_14" data-name="Path 14" d="M833.289,355.807a4.513,4.513,0,1,1,4.513-4.513A4.518,4.518,0,0,1,833.289,355.807Zm0-8.38a3.868,3.868,0,1,0,3.868,3.868A3.872,3.872,0,0,0,833.289,347.427Z" transform="translate(-828.777 -346.782)" fill="#f0c141"/>
          </g>
        </g>
        <g id="Group_47" data-name="Group 47" transform="translate(272.089 356.596)">
          <g id="Group_45" data-name="Group 45" transform="translate(2.62 3.614)">
            <g id="Group_44" data-name="Group 44">
              <g id="Group_43" data-name="Group 43">
                <g id="Group_42" data-name="Group 42">
                  <g id="Group_41" data-name="Group 41">
                    <path id="Path_15" data-name="Path 15" d="M585.285,584.417l-1.391-2.278a.4.4,0,1,1,.676-.413l.984,1.611,2.615-1.548a.4.4,0,1,1,.4.682Z" transform="translate(-583.836 -581.536)" fill="#f0c141"/>
                  </g>
                </g>
              </g>
            </g>
          </g>
          <g id="Group_46" data-name="Group 46" transform="translate(0 0)">
            <path id="Path_16" data-name="Path 16" d="M542.218,527.221a5,5,0,1,1,5-5A5.009,5.009,0,0,1,542.218,527.221Zm0-9.291a4.288,4.288,0,1,0,4.288,4.288A4.293,4.293,0,0,0,542.218,517.93Z" transform="translate(-537.215 -517.215)" fill="#f0c141"/>
          </g>
        </g>
        <g id="Group_54" data-name="Group 54" transform="translate(374.872 358.919)">
          <g id="Group_52" data-name="Group 52" transform="translate(1.49 2.055)">
            <g id="Group_51" data-name="Group 51">
              <g id="Group_50" data-name="Group 50">
                <g id="Group_49" data-name="Group 49">
                  <g id="Group_48" data-name="Group 48">
                    <path id="Path_17" data-name="Path 17" d="M1954.069,438.623l-.791-1.3a.225.225,0,0,1,.385-.235l.559.916,1.487-.88a.225.225,0,0,1,.23.388Z" transform="translate(-1953.245 -436.985)" fill="#f0c141"/>
                  </g>
                </g>
              </g>
            </g>
          </g>
          <g id="Group_53" data-name="Group 53" transform="translate(0 0)">
            <path id="Path_18" data-name="Path 18" d="M1929.581,406.1a2.845,2.845,0,1,1,2.845-2.845A2.848,2.848,0,0,1,1929.581,406.1Zm0-5.283a2.438,2.438,0,1,0,2.438,2.438A2.441,2.441,0,0,0,1929.581,400.816Z" transform="translate(-1926.736 -400.41)" fill="#f0c141"/>
          </g>
        </g>
        <g id="Group_55" data-name="Group 55" transform="translate(331.511 381.454)">
          <rect id="Rectangle_7" data-name="Rectangle 7" width="7.846" height="23.832" transform="translate(7.846 23.832) rotate(180)" fill="#8f8f8f"/>
        </g>
        <g id="Group_56" data-name="Group 56" transform="translate(301.558 345.138)">
          <path id="Rectangle_8" data-name="Rectangle 8" d="M23.9,0H43.854a23.9,23.9,0,0,1,23.9,23.9v0a23.9,23.9,0,0,1-23.9,23.9H23.9A23.9,23.9,0,0,1,0,23.9v0A23.9,23.9,0,0,1,23.9,0Z" transform="translate(67.752 47.795) rotate(180)" fill="#f0f0f0"/>
        </g>
        <g id="Group_57" data-name="Group 57" transform="translate(304.212 340.051)">
          <rect id="Rectangle_9" data-name="Rectangle 9" width="62.445" height="45.392" transform="translate(62.445 45.392) rotate(180)" fill="#fff"/>
        </g>
        <g id="Group_58" data-name="Group 58" transform="translate(304.212 340.051)">
          <rect id="Rectangle_10" data-name="Rectangle 10" width="62.445" height="5.483" transform="translate(62.445 5.483) rotate(180)" fill="url(#linear-gradient-6)"/>
        </g>
        <g id="Group_59" data-name="Group 59" transform="translate(359.057 386.686)">
          <path id="Path_19" data-name="Path 19" d="M1749.672,1542.026a2.6,2.6,0,1,0,2.57-2.185A2.4,2.4,0,0,0,1749.672,1542.026Z" transform="translate(-1749.672 -1539.841)" fill="#ccc"/>
        </g>
        <rect id="Rectangle_11" data-name="Rectangle 11" width="35.299" height="1.799" transform="translate(317.785 404.386)" fill="#ccc"/>
        <rect id="Rectangle_12" data-name="Rectangle 12" width="8.906" height="2.072" rx="1.036" transform="translate(306.82 341.757)" fill="#f5f7ff"/>
        <rect id="Rectangle_13" data-name="Rectangle 13" width="32.694" height="1.124" transform="translate(308.787 364.637)" fill="#e6e6e6"/>
        <rect id="Rectangle_14" data-name="Rectangle 14" width="24.249" height="1.124" transform="translate(308.787 366.661)" fill="#e6e6e6"/>
        <rect id="Rectangle_15" data-name="Rectangle 15" width="15.376" height="1.124" transform="translate(308.787 371.059)" fill="#e6e6e6"/>
        <rect id="Rectangle_16" data-name="Rectangle 16" width="27.623" height="1.124" transform="translate(308.787 373.083)" fill="#e6e6e6"/>
        <rect id="Rectangle_17" data-name="Rectangle 17" width="25.877" height="1.124" transform="translate(308.787 377.919)" fill="#e6e6e6"/>
        <rect id="Rectangle_18" data-name="Rectangle 18" width="31.599" height="1.124" transform="translate(308.787 379.943)" fill="#e6e6e6"/>
        <rect id="Rectangle_19" data-name="Rectangle 19" width="0.822" height="3.148" transform="translate(307.191 364.637)" fill="#78c2ff"/>
        <rect id="Rectangle_20" data-name="Rectangle 20" width="0.822" height="3.148" transform="translate(307.191 371.059)" fill="#78c2ff"/>
        <rect id="Rectangle_21" data-name="Rectangle 21" width="0.822" height="3.148" transform="translate(307.191 377.919)" fill="#78c2ff"/>
        <g id="Group_64" data-name="Group 64" transform="translate(348.778 377.981)">
          <g id="Group_60" data-name="Group 60" transform="translate(0 0)">
            <path id="Rectangle_22" data-name="Rectangle 22" d="M2.252,0h0A2.251,2.251,0,0,1,4.5,2.251v0A2.251,2.251,0,0,1,2.252,4.5h0A2.252,2.252,0,0,1,0,2.252v0A2.252,2.252,0,0,1,2.252,0Z" fill="#78c2ff"/>
          </g>
          <g id="Group_63" data-name="Group 63" transform="translate(0.894 1.26)">
            <g id="Group_62" data-name="Group 62">
              <g id="Group_61" data-name="Group 61">
                <path id="Path_20" data-name="Path 20" d="M1583.845,1409.335l-1.139-.992A.224.224,0,0,1,1583,1408l.8.7,1.148-1.28a.224.224,0,1,1,.334.3Z" transform="translate(-1582.63 -1407.351)" fill="#f3f3f3"/>
              </g>
            </g>
          </g>
        </g>
        <g id="Group_67" data-name="Group 67" transform="translate(348.776 371.119)">
          <g id="Group_66" data-name="Group 66">
            <g id="Group_65" data-name="Group 65">
              <path id="Path_21" data-name="Path 21" d="M1570.171,1267.31h-2.455a1.027,1.027,0,0,1-1.026-1.026v-2.455a1.028,1.028,0,0,1,1.026-1.026h2.455a1.028,1.028,0,0,1,1.026,1.026v2.455A1.027,1.027,0,0,1,1570.171,1267.31Zm-2.455-4.222a.741.741,0,0,0-.74.741v2.455a.742.742,0,0,0,.74.741h2.455a.741.741,0,0,0,.74-.741v-2.455a.741.741,0,0,0-.74-.741Z" transform="translate(-1566.69 -1262.803)" fill="#78c2ff"/>
            </g>
          </g>
        </g>
        <g id="Group_70" data-name="Group 70" transform="translate(355.555 377.979)">
          <g id="Group_69" data-name="Group 69">
            <g id="Group_68" data-name="Group 68">
              <path id="Path_22" data-name="Path 22" d="M1690.827,1389.4h-2.455a1.028,1.028,0,0,1-1.026-1.026v-2.455a1.028,1.028,0,0,1,1.026-1.026h2.455a1.027,1.027,0,0,1,1.026,1.026v2.455A1.027,1.027,0,0,1,1690.827,1389.4Zm-2.455-4.222a.741.741,0,0,0-.741.74v2.455a.741.741,0,0,0,.741.74h2.455a.741.741,0,0,0,.74-.74v-2.455a.741.741,0,0,0-.74-.74Z" transform="translate(-1687.346 -1384.894)" fill="#78c2ff"/>
            </g>
          </g>
        </g>
        <g id="Group_75" data-name="Group 75" transform="translate(355.558 371.121)">
          <g id="Group_71" data-name="Group 71" transform="translate(0 0)">
            <path id="Rectangle_23" data-name="Rectangle 23" d="M2.252,0h0A2.252,2.252,0,0,1,4.5,2.252v0A2.252,2.252,0,0,1,2.252,4.5h0A2.252,2.252,0,0,1,0,2.252v0A2.252,2.252,0,0,1,2.252,0Z" fill="#78c2ff"/>
          </g>
          <g id="Group_74" data-name="Group 74" transform="translate(0.894 1.26)">
            <g id="Group_73" data-name="Group 73">
              <g id="Group_72" data-name="Group 72">
                <path id="Path_23" data-name="Path 23" d="M1704.505,1287.245l-1.138-.992a.224.224,0,1,1,.295-.338l.805.7,1.148-1.28a.224.224,0,1,1,.334.3Z" transform="translate(-1703.29 -1285.261)" fill="#f3f3f3"/>
              </g>
            </g>
          </g>
        </g>
        <g id="Group_78" data-name="Group 78" transform="translate(355.555 364.259)">
          <g id="Group_77" data-name="Group 77" transform="translate(0 0)">
            <g id="Group_76" data-name="Group 76">
              <path id="Path_24" data-name="Path 24" d="M1690.827,1145.223h-2.455a1.027,1.027,0,0,1-1.026-1.026v-2.455a1.027,1.027,0,0,1,1.026-1.026h2.455a1.027,1.027,0,0,1,1.026,1.026v2.455A1.027,1.027,0,0,1,1690.827,1145.223Zm-2.455-4.222a.742.742,0,0,0-.741.741v2.455a.742.742,0,0,0,.741.741h2.455a.741.741,0,0,0,.74-.741v-2.455a.742.742,0,0,0-.74-.741Z" transform="translate(-1687.346 -1140.715)" fill="#78c2ff"/>
            </g>
          </g>
        </g>
        <g id="Group_83" data-name="Group 83" transform="translate(348.778 364.261)">
          <g id="Group_79" data-name="Group 79">
            <path id="Rectangle_24" data-name="Rectangle 24" d="M2.252,0h0A2.251,2.251,0,0,1,4.5,2.251v0A2.251,2.251,0,0,1,2.252,4.5h0A2.252,2.252,0,0,1,0,2.252v0A2.252,2.252,0,0,1,2.252,0Z" fill="#78c2ff"/>
          </g>
          <g id="Group_82" data-name="Group 82" transform="translate(0.894 1.26)">
            <g id="Group_81" data-name="Group 81">
              <g id="Group_80" data-name="Group 80">
                <path id="Path_25" data-name="Path 25" d="M1583.845,1165.156l-1.139-.992a.224.224,0,0,1,.295-.338l.8.7,1.148-1.28a.224.224,0,1,1,.334.3Z" transform="translate(-1582.63 -1163.173)" fill="#f3f3f3"/>
              </g>
            </g>
          </g>
        </g>
        <g id="Group_88" data-name="Group 88" transform="translate(277.854 370.387)">
          <path id="Path_26" data-name="Path 26" d="M455.735,1249.823c-1.063-.508-2.121,2.876-2.121,2.876-1.807,2.388-4.332-.788-4.085,2.781.432,6.245-7.189,1.964-3.673,8.484s-3.1,3.687-.92,8.944-.647,11.528,2.64,8.951c0,0,2.895-6.348,5.88-8.312s-1.788-4.294-.854-6.962c1.357-3.874,4.625-3.722,2.268-7.886S459.349,1251.551,455.735,1249.823Z" transform="translate(-436.619 -1249.771)" fill="url(#linear-gradient-7)"/>
          <g id="Group_84" data-name="Group 84" transform="translate(9.781 6.621)">
            <path id="Path_27" data-name="Path 27" d="M478.732,1390.683c1.425-1,3.093-7.986,3.192-12.145a5.859,5.859,0,0,1,1.237-3.8,3.213,3.213,0,0,0,.723-2.88c-.511-2.837.832-4.062.846-4.074l-.155-.177c-.06.052-1.458,1.315-.922,4.293a2.988,2.988,0,0,1-.683,2.7,6.132,6.132,0,0,0-1.28,3.932c-.107,4.464-1.812,11.058-3.092,11.958Z" transform="translate(-478.596 -1367.605)" fill="#fff"/>
          </g>
          <g id="Group_85" data-name="Group 85" transform="translate(0 16.228)">
            <path id="Path_28" data-name="Path 28" d="M311.456,1550.005c-.135-.3-.274-.62-.431-.953a4,4,0,0,0-2.73-2.47c-.292-.115-.623-.245-.986-.408-1.711-.769-1.38-1.9-1.088-2.9.041-.14.082-.28.117-.418.15-.588-.139-.883-.576-1.33a5,5,0,0,1-1.042-1.4c-.342-.714-.167-1.1.039-1.293a2.25,2.25,0,0,1,2.38.18h0a3.432,3.432,0,0,1,.791.682,3.921,3.921,0,0,0,3.249,1.425c1.081.005,1.674.155,1.98.5.348.391.283.977.192,1.787-.031.28-.067.6-.089.941a5.491,5.491,0,0,0,1.092,3.54c.722.86,1.612,2.645,1.228,3.743a1.315,1.315,0,0,1-1.07.861,3.05,3.05,0,0,1-.6.065C312.583,1552.56,312.1,1551.46,311.456,1550.005Zm-4.43-10.783c-.844-.461-1.749-.554-2.105-.216-.271.257-.143.7.012,1.02a4.724,4.724,0,0,0,1,1.334c.458.467.82.837.636,1.553-.036.14-.078.282-.119.425-.291,1-.566,1.937.958,2.621.358.161.686.29.975.4a4.231,4.231,0,0,1,2.857,2.589c.159.336.3.653.434.959.737,1.671,1.182,2.679,2.794,2.354a1.093,1.093,0,0,0,.895-.708c.339-.968-.471-2.663-1.187-3.514a5.63,5.63,0,0,1-1.147-3.706c.022-.349.058-.67.09-.953.084-.75.145-1.292-.134-1.6-.254-.286-.811-.416-1.806-.42a4.124,4.124,0,0,1-3.418-1.5,3.217,3.217,0,0,0-.734-.637Z" transform="translate(-304.526 -1538.571)" fill="url(#linear-gradient-8)"/>
          </g>
          <g id="Group_86" data-name="Group 86" transform="translate(1.828 18.11)">
            <path id="Path_29" data-name="Path 29" d="M345.189,1585.531l.235-.012c-.012-.221-.309-5.433-2.4-6.958a8.377,8.377,0,0,1-3.364-4.679c-.406-1.423-2.474-1.8-2.561-1.818l-.041.232c.02,0,2.01.37,2.376,1.65a8.6,8.6,0,0,0,3.452,4.8C344.887,1580.21,345.186,1585.478,345.189,1585.531Z" transform="translate(-337.056 -1572.063)" fill="url(#linear-gradient-9)"/>
          </g>
          <path id="Path_30" data-name="Path 30" d="M368.026,1343.3c1.487-.51,1.178,2.356,1.807,4.478s6.992.925,4.321,6.237,3.378,1.776,1.571,6.411-.157,9.592-2.121,8.331-1.1-7.1-3.146-7.791-2.376-1.5-.354-3.388-5.3-3.757-3.492-7.564S366.308,1343.888,368.026,1343.3Z" transform="translate(-362.85 -1337.987)" fill="url(#linear-gradient-10)"/>
          <g id="Group_87" data-name="Group 87" transform="translate(5.924 11.96)">
            <path id="Path_31" data-name="Path 31" d="M413.869,1481.21c.187-.794,1.784-7.776.294-8.62-1.314-.744-1.281-3.637-1.076-6.37.181-2.418-2.925-3.549-3.057-3.6l-.079.222c.031.011,3.069,1.118,2.9,3.357-.211,2.806-.233,5.784,1.2,6.592,1.132.641.09,6.253-.407,8.361Z" transform="translate(-409.951 -1462.624)" fill="#fff"/>
          </g>
          <path id="Path_32" data-name="Path 32" d="M428.507,1749.14l-2.124,8.056h-4.746l-2.124-8.056Z" transform="translate(-413.053 -1721.081)" fill="url(#linear-gradient-11)"/>
          <path id="Path_33" data-name="Path 33" d="M428.507,1749.14s-4.675.878-4.675,8.056h-2.194l-2.124-8.056Z" transform="translate(-413.053 -1721.08)" fill="url(#linear-gradient-12)"/>
        </g>
        <g id="Group_121" data-name="Group 121" transform="translate(328.968 372.837)">
          <g id="Group_91" data-name="Group 91" transform="translate(0.013 20.07)">
            <g id="Group_90" data-name="Group 90">
              <g id="Group_89" data-name="Group 89">
                <path id="Path_34" data-name="Path 34" d="M1215.92,1650.75a1.419,1.419,0,0,1,.184.486,2.328,2.328,0,0,0,.224.574,5.434,5.434,0,0,1,.273.957,4.419,4.419,0,0,0-.129.641c.021.139.1.413-.024.432s-.266-.207-.266-.207a.183.183,0,0,1-.094.176.308.308,0,0,1-.313.011s-.075.141-.17.159a.385.385,0,0,1-.311-.042.377.377,0,0,1-.237.076.31.31,0,0,1-.262-.163s-.234.047-.3-.062a1.048,1.048,0,0,1-.084-.325,3.784,3.784,0,0,1,.3-1.636,1.45,1.45,0,0,0-.077-1.271Z" transform="translate(-1214.4 -1650.557)" fill="#eea886"/>
              </g>
            </g>
          </g>
          <g id="Group_93" data-name="Group 93" transform="translate(0 21.88)">
            <g id="Group_92" data-name="Group 92">
              <path id="Path_35" data-name="Path 35" d="M1216.006,1683.963s.021-.8-.19-.972-.235.119-.235.119.029-.286-.2-.324-.24.3-.24.3a.223.223,0,0,0-.28-.175c-.242.045-.184.327-.184.327s-.232-.276-.381-.011a1.181,1.181,0,0,0-.009.976s.071.121.3.062a.318.318,0,0,0,.5.087s.353.194.482-.117A.292.292,0,0,0,1216.006,1683.963Z" transform="translate(-1214.177 -1682.781)" fill="#db9c7c"/>
            </g>
          </g>
          <path id="Path_36" data-name="Path 36" d="M1219.316,1416.967s-1.373,4.575-1.836,6.262c-.146.529-.5,5.583-.56,5.787s-1.8.482-1.8.482.211-6.322.23-6.667,1.921-7.406,2.474-7.657c.414-.189.633-.033,1.155.355A1.222,1.222,0,0,1,1219.316,1416.967Z" transform="translate(-1215.064 -1408.255)" fill="#323657"/>
          <g id="Group_94" data-name="Group 94" transform="translate(17.637 0.248)">
            <rect id="Rectangle_25" data-name="Rectangle 25" width="3.755" height="0.279" transform="translate(0 2.056) rotate(-33.204)" fill="#4da8f2"/>
          </g>
          <path id="Path_37" data-name="Path 37" d="M1553.848,1302.733a.827.827,0,0,1-.081.249s-.1.123-.171.214a.793.793,0,0,0-.049.073,1.5,1.5,0,0,1-.26.4c-.15.152-.732.635-.732.635l-.5-.424-.519-.232a9.758,9.758,0,0,1,.413-1.419.486.486,0,0,1,.037-.043,1.921,1.921,0,0,1,.325-.224c.025-.021.292-.213.387-.188a.321.321,0,0,1,.24.2.769.769,0,0,1,.355.228.477.477,0,0,1,.309.286S1553.837,1302.585,1553.848,1302.733Z" transform="translate(-1532.581 -1301.304)" fill="#efaa88"/>
          <g id="Group_96" data-name="Group 96" transform="translate(1.494 39.835)">
            <g id="Group_95" data-name="Group 95">
              <path id="Path_38" data-name="Path 38" d="M1242.411,2002.432s-.125.868-.141,1-1.392-.077-1.392-.077l-.111-1.034A8.165,8.165,0,0,1,1242.411,2002.432Z" transform="translate(-1240.767 -2002.32)" fill="#424773"/>
            </g>
          </g>
          <g id="Group_98" data-name="Group 98" transform="translate(1.279 40.777)">
            <g id="Group_97" data-name="Group 97">
              <path id="Path_39" data-name="Path 39" d="M1238.672,2019.138a3.715,3.715,0,0,0,.858.751c.422.228,1.085.318,1.334.555.18.17.656.9-1.1.889s-2.6.1-2.784-.178.271-2.076.271-2.076A3.711,3.711,0,0,0,1238.672,2019.138Z" transform="translate(-1236.939 -2019.079)" fill="#292c47"/>
            </g>
          </g>
          <g id="Group_100" data-name="Group 100" transform="translate(11.355 39.835)">
            <g id="Group_99" data-name="Group 99">
              <path id="Path_40" data-name="Path 40" d="M1417.9,2002.432s-.125.868-.141,1-1.392-.077-1.392-.077l-.111-1.034A8.166,8.166,0,0,1,1417.9,2002.432Z" transform="translate(-1416.254 -2002.32)" fill="#424773"/>
            </g>
          </g>
          <g id="Group_102" data-name="Group 102" transform="translate(11.14 40.777)">
            <g id="Group_101" data-name="Group 101">
              <path id="Path_41" data-name="Path 41" d="M1414.159,2019.138a3.719,3.719,0,0,0,.858.751c.422.228,1.974.415,2.223.652.18.17.479.856-1.985.792-1.751-.046-2.6.1-2.784-.178s.272-2.076.272-2.076A3.368,3.368,0,0,0,1414.159,2019.138Z" transform="translate(-1412.426 -2019.079)" fill="#292c47"/>
            </g>
          </g>
          <g id="Group_104" data-name="Group 104" transform="translate(1.279 17.632)">
            <g id="Group_103" data-name="Group 103">
              <path id="Path_42" data-name="Path 42" d="M1239.938,1607.177a8.02,8.02,0,0,0-1.2,3.912,41.03,41.03,0,0,1-.663,5.825c-.216,2.163-1.1,7.283-1.135,8.44s.138,4.851.138,4.851l1.774.04s1.49-8.951,1.876-9.865,2.3-7.425,2.364-8.155S1239.938,1607.177,1239.938,1607.177Z" transform="translate(-1236.939 -1607.177)" fill="#292c47"/>
            </g>
          </g>
          <g id="Group_106" data-name="Group 106" transform="translate(3.627 17.278)">
            <g id="Group_105" data-name="Group 105">
              <path id="Path_43" data-name="Path 43" d="M1286.183,1601.51s.974,5.09,1.1,6.227.214,5.5.278,6.211.6,9.275.772,10.352h-2.268s-1.741-6.241-1.741-9.195-1.345-6.42-2.213-8.368-2.856-1.995-3.389-5.609C1278.725,1601.127,1285.46,1600.364,1286.183,1601.51Z" transform="translate(-1278.725 -1600.878)" fill="#292c47"/>
            </g>
          </g>
          <g id="Group_108" data-name="Group 108" transform="translate(5.349 0.2)">
            <g id="Group_107" data-name="Group 107">
              <path id="Path_44" data-name="Path 44" d="M1310.462,1297.1s1.736-.648,2.536.673.723,3.966-.152,4.292a2.247,2.247,0,0,1-2.637-.671,6.626,6.626,0,0,1-.833-2.821A1.741,1.741,0,0,1,1310.462,1297.1Z" transform="translate(-1309.376 -1296.945)" fill="#eea886"/>
            </g>
          </g>
          <g id="Group_110" data-name="Group 110" transform="translate(5.844 3.737)">
            <g id="Group_109" data-name="Group 109">
              <path id="Path_45" data-name="Path 45" d="M1320.963,1361.533a1.5,1.5,0,0,0,.047.7c.119.231-2.249.237-2.249.237a15.628,15.628,0,0,0-.557-2.317C1317.84,1359.092,1320.963,1361.533,1320.963,1361.533Z" transform="translate(-1318.175 -1359.885)" fill="#eea886"/>
            </g>
          </g>
          <g id="Group_112" data-name="Group 112" transform="translate(5.205 0)">
            <g id="Group_111" data-name="Group 111">
              <path id="Path_46" data-name="Path 46" d="M1307.474,1297.391s.163.27.83.165,1.481-.992,1.76-1.09.281-.261.281-.261l.174.255.3.019s-.27-.794.137-1.118-.423-2.57-2.562-1.822c0,0-1.643.453-1.583,1.388A5.192,5.192,0,0,0,1307.474,1297.391Z" transform="translate(-1306.806 -1293.387)" fill="#d88a51"/>
            </g>
          </g>
          <g id="Group_114" data-name="Group 114" transform="translate(6.16 5.407)">
            <g id="Group_113" data-name="Group 113">
              <path id="Path_47" data-name="Path 47" d="M1326.457,1390.259s-.007-.441-.207-.483a14.3,14.3,0,0,0-2.452-.139v.514S1324.27,1390.442,1326.457,1390.259Z" transform="translate(-1323.797 -1389.61)" fill="#e2d2ca"/>
            </g>
          </g>
          <g id="Group_116" data-name="Group 116" transform="translate(8.077 2.137)">
            <g id="Group_115" data-name="Group 115">
              <path id="Path_48" data-name="Path 48" d="M1358.54,1331.766c-.037-.157-.436-.6-.589-.125s.231,1.125.444,1.07S1358.635,1332.164,1358.54,1331.766Z" transform="translate(-1357.916 -1331.426)" fill="#eea886"/>
            </g>
          </g>
          <g id="Group_118" data-name="Group 118" transform="translate(2.416 2.128)">
            <g id="Group_117" data-name="Group 117">
              <path id="Path_49" data-name="Path 49" d="M1266.888,1335.845c-1.376-.181-3.319-.668-3.319-.668l-2.66-.108a25.9,25.9,0,0,0-3.4.971,26.516,26.516,0,0,1-.342,2.738l.8,1.681s.46,3.33.556,4.812c.044.68-.95,6.377-.95,6.377a18.348,18.348,0,0,0,2.879.513c1.815.2,6.35-.072,6.379-.287s-.878-7.983-.918-8.385c-.062-.618.213-3.9.213-3.9.419-.325,4.1-2.033,5.1-2.923.268-.238,1.4-1.342,1.725-1.723a30.96,30.96,0,0,0,2.191-2.757c.129-.142-1.27-.9-1.394-.937-.109-.036-1.622,1.972-2.216,2.615a16.651,16.651,0,0,1-1.365,1.088A13.625,13.625,0,0,1,1266.888,1335.845Z" transform="translate(-1257.165 -1331.25)" fill="#323657"/>
            </g>
          </g>
          <g id="Group_120" data-name="Group 120" transform="translate(4.937 0.515)">
            <g id="Group_119" data-name="Group 119">
              <path id="Path_50" data-name="Path 50" d="M1303.047,1302.551s-2.213.173-.068,3.489Z" transform="translate(-1302.043 -1302.551)" fill="#d88a51"/>
            </g>
          </g>
          <path id="Path_51" data-name="Path 51" d="M1584.13,1297.293l.182-.277-.334.044Z" transform="translate(-1563.198 -1296.812)" fill="#dfe1e8"/>
        </g>
        <g id="Group_135" data-name="Group 135" transform="translate(296.182 374.305)">
          <path id="Path_52" data-name="Path 52" d="M794.067,1575.008a5.494,5.494,0,0,1,1.378.233,5.45,5.45,0,0,0,2.375-.622.334.334,0,0,0,0-.221h-4Z" transform="translate(-784.658 -1560.075)" fill="#de9673"/>
          <g id="Group_122" data-name="Group 122" transform="translate(2.104 9.987)">
            <path id="Path_53" data-name="Path 53" d="M670.614,1497.44s-.343,2.7,0,3.052c1.312,1.351,6.175,1.244,6.175,1.244l0,.549s-7.392.922-8.078-.512a10.186,10.186,0,0,1-.5-4.532Z" transform="translate(-668.143 -1497.242)" fill="#de9673"/>
          </g>
          <g id="Group_123" data-name="Group 123" transform="translate(1.113 37.297)">
            <path id="Path_54" data-name="Path 54" d="M651.53,1984.586l.439-.5-.793-.829-.669.469Z" transform="translate(-650.507 -1983.256)" fill="#2f4563"/>
          </g>
          <g id="Group_124" data-name="Group 124" transform="translate(0.048 37.766)">
            <path id="Path_55" data-name="Path 55" d="M632.616,1991.6a5.6,5.6,0,0,0,1.156.709c.252.027.37.139.341.523s.368,2,.645,2.024,1.22.031,1.391.653-2.992.491-3.188-.019-1.558-2.982-1.4-3.181A1.937,1.937,0,0,1,632.616,1991.6Z" transform="translate(-631.551 -1991.6)" fill="#1e2d40"/>
          </g>
          <g id="Group_125" data-name="Group 125" transform="translate(1.592 17.911)">
            <path id="Path_56" data-name="Path 56" d="M664.366,1638.8s5.91,10.3,3.511,12.426c-.941.835-1.846,1.591-3.148,2.709a32.09,32.09,0,0,0-2.518,2.314l-.041.043c-.706.736-1.289,1.359-1.469,1.551l-.017.018-.02.021-.658.628-.965-.849a28.6,28.6,0,0,0,1.711-2.677,17.076,17.076,0,0,1,2.994-4.085c1.153-.917,1.47-1.1,1.47-1.973,0-.94-5.417-6.192-5.417-6.192s-.786-3.287,1.091-4.147A3.876,3.876,0,0,1,664.366,1638.8Z" transform="translate(-659.041 -1638.264)" fill="#23344a"/>
          </g>
          <path id="Path_57" data-name="Path 57" d="M651.615,2019.239a2.927,2.927,0,0,1,.043-.777c.08-.3-1.224-.129-1.224-.129a11.308,11.308,0,0,0-.119,1.556C650.364,2020.178,651.615,2019.239,651.615,2019.239Z" transform="translate(-649.205 -1979.018)" fill="#41608a"/>
          <g id="Group_126" data-name="Group 126" transform="translate(0.789 18.064)">
            <path id="Path_58" data-name="Path 58" d="M646.616,1662.365l-1.758.317s-.127-2.243-.1-3.962a13.4,13.4,0,0,1,.5-4.77,6.731,6.731,0,0,0,.454-2.838c.046-.939-.451-5.774-.451-5.774a4.242,4.242,0,0,1,.79-3.692c1.354-1.488,4.858-.006,4.858-.006s-.73,6.6-2.482,10.69c-.5,1.156-.228,1.859-.86,3.645A33.472,33.472,0,0,0,646.616,1662.365Z" transform="translate(-644.751 -1640.984)" fill="#2f4563"/>
          </g>
          <g id="Group_127" data-name="Group 127" transform="translate(1.841 4.337)">
            <path id="Path_59" data-name="Path 59" d="M665.815,1398a2.031,2.031,0,0,0-.208.565,4.835,4.835,0,0,0-.1.6,7.047,7.047,0,0,0-.035.768s-2.345-.51-1.96-1.057.158-2.2.158-2.2S666.119,1397.493,665.815,1398Z" transform="translate(-663.473 -1396.679)" fill="#eea987"/>
          </g>
          <g id="Group_128" data-name="Group 128" transform="translate(1.393 0.73)">
            <path id="Path_60" data-name="Path 60" d="M659.607,1332.9s.6.521.332,2.023a5.137,5.137,0,0,0,.316,1.4c.183.208-.492.286-.563.436a2.984,2.984,0,0,1-.676,1.277c-.47.424-2.8-.854-2.913-1.576s-1.727-3.816.827-3.957S659.607,1332.9,659.607,1332.9Z" transform="translate(-655.497 -1332.485)" fill="#eea886"/>
          </g>
          <g id="Group_129" data-name="Group 129" transform="translate(1.226 6.641)">
            <path id="Path_61" data-name="Path 61" d="M658.413,1443.28c-.047.151.132,2.462.115,2.661a15.271,15.271,0,0,0,.3,3.348c.027.141.041.212.041.212a15.131,15.131,0,0,1-6.054,1.13c.013-.1.5-1.286.517-1.377a15.008,15.008,0,0,0,.432-3.17h0a6.283,6.283,0,0,0-.488-1.887,8.632,8.632,0,0,1-.673-4.68,5.717,5.717,0,0,1,.488-1.823l2.139.229c.454.5.858.771,2.149,1.917C658.757,1441.061,659,1441.431,658.413,1443.28Z" transform="translate(-652.529 -1437.695)" fill="#eb4747"/>
          </g>
          <g id="Group_130" data-name="Group 130" transform="translate(0.896 40.087)">
            <path id="Path_62" data-name="Path 62" d="M646.784,2033.366s1.237-.352,1.274-.386.045-.109.216-.041.241.327.409.409,1.189.381,1.748.656c.2.1,1.058.426,1.181.7s.085.682-1.385.585-3.078.11-3.4-.051S646.7,2033.791,646.784,2033.366Z" transform="translate(-646.649 -2032.911)" fill="#23344a"/>
          </g>
          <g id="Group_131" data-name="Group 131" transform="translate(1.341)">
            <path id="Path_63" data-name="Path 63" d="M659.124,1322.128s.287-3.119-2.736-2.562-1.465,3.965-1.058,5.076c0,0-.05-1.725,1.406-1.782A3.977,3.977,0,0,0,659.124,1322.128Z" transform="translate(-654.565 -1319.5)" fill="#464240"/>
          </g>
          <g id="Group_132" data-name="Group 132" transform="translate(2.534 2.762)">
            <path id="Path_64" data-name="Path 64" d="M676.549,1368.813a.417.417,0,0,0-.735.334c.071.482.572.964.737.73A.935.935,0,0,0,676.549,1368.813Z" transform="translate(-675.808 -1368.651)" fill="#eea987"/>
          </g>
          <g id="Group_133" data-name="Group 133" transform="translate(1.226 8.788)">
            <path id="Path_65" data-name="Path 65" d="M654.646,1476.155s-.249,2.672.094,3.026c1.312,1.351,6.489,1.377,6.489,1.377l.247.777s-7.7.524-8.382-.91a10.184,10.184,0,0,1-.505-4.532Z" transform="translate(-652.529 -1475.892)" fill="#eea987"/>
          </g>
          <path id="Path_66" data-name="Path 66" d="M632.909,1326.7s-1.164-1.117-1.992.148.983,3.03,1.718,1.983A2.335,2.335,0,0,0,632.909,1326.7Z" transform="translate(-630.704 -1325.863)" fill="#464240"/>
          <path id="Path_67" data-name="Path 67" d="M676.971,1416.272a4.832,4.832,0,0,0-.1.6,3.768,3.768,0,0,1-1.362-1.44,5.994,5.994,0,0,0,1.458.837Z" transform="translate(-672.995 -1410.045)" fill="#a77860"/>
          <rect id="Rectangle_26" data-name="Rectangle 26" width="7.339" height="0.41" transform="translate(7.768 14.229)" fill="#6e6760"/>
          <rect id="Rectangle_27" data-name="Rectangle 27" width="7.339" height="0.41" transform="translate(14.741 14.455) rotate(-63.225)" fill="#6e6760"/>
          <path id="Path_68" data-name="Path 68" d="M784.059,1553.341a4.43,4.43,0,0,0,1.378-.3c.3-.214,2.337.6,2.375.792a.534.534,0,0,1,0,.281h-4Z" transform="translate(-775.213 -1539.888)" fill="#eea987"/>
          <path id="Path_69" data-name="Path 69" d="M662.625,1430.823l.151-.409,2.055.409v.364Z" transform="translate(-660.832 -1424.182)" fill="#eb4747"/>
          <g id="Group_134" data-name="Group 134" transform="translate(1.287 7.392)">
            <path id="Path_70" data-name="Path 70" d="M655.659,1452.753s.22-1.549-.858-1.685-1.2,1.392-1.2,1.392Z" transform="translate(-653.605 -1451.06)" fill="#eea987"/>
          </g>
        </g>
        <g id="Group_152" data-name="Group 152" transform="translate(353.364 372.425)">
          <g id="Group_136" data-name="Group 136" transform="translate(16.392 40.045)">
            <path id="Path_71" data-name="Path 71" d="M1940.066,1998.829s.125.877.141,1.008,1.392-.078,1.392-.078l.111-1.043A8.072,8.072,0,0,0,1940.066,1998.829Z" transform="translate(-1940.066 -1998.716)" fill="#5c544d"/>
          </g>
          <g id="Group_137" data-name="Group 137" transform="translate(14.13 40.996)">
            <g transform="matrix(1, 0, 0, 1, -106.1, -99.64)" filter="url(#Path_72)">
              <path id="Path_72-2" data-name="Path 72" d="M1902.2,2015.692a3.721,3.721,0,0,1-.858.758c-.422.23-1.084.322-1.334.56-.18.172-.655.913,1.1.9s2.6.1,2.783-.179-.271-2.1-.271-2.1A3.674,3.674,0,0,1,1902.2,2015.692Z" transform="translate(-1793.72 -1915.99)" fill="#3c4145"/>
            </g>
          </g>
          <g id="Group_138" data-name="Group 138" transform="translate(6.533 40.045)">
            <path id="Path_73" data-name="Path 73" d="M1764.608,1998.829s.125.877.141,1.008,1.391-.078,1.391-.078l.112-1.043A8.075,8.075,0,0,0,1764.608,1998.829Z" transform="translate(-1764.608 -1998.716)" fill="#5c544d"/>
          </g>
          <g id="Group_139" data-name="Group 139" transform="translate(3.463 40.996)">
            <g transform="matrix(1, 0, 0, 1, -95.43, -99.64)" filter="url(#Path_74)">
              <path id="Path_74-2" data-name="Path 74" d="M1713.157,2015.692a3.723,3.723,0,0,1-.858.758c-.422.23-1.973.419-2.222.658-.18.172-.479.865,1.985.8,1.751-.046,2.6.1,2.783-.179s-.271-2.1-.271-2.1A3.334,3.334,0,0,1,1713.157,2015.692Z" transform="translate(-1614.53 -1915.99)" fill="#3c4145"/>
            </g>
          </g>
          <g id="Group_140" data-name="Group 140" transform="translate(12.096 17.526)">
            <path id="Path_75" data-name="Path 75" d="M1867.415,1597.961a12.962,12.962,0,0,1,.636,4.05,41.464,41.464,0,0,0,.573,5.884c.217,2.183,1.1,7.351,1.135,8.519s-.138,4.9-.138,4.9l-1.774.041s-1.49-9.036-1.875-9.958-2.3-7.494-2.363-8.232S1867.415,1597.961,1867.415,1597.961Z" transform="translate(-1863.607 -1597.961)" fill="#33373b"/>
          </g>
          <g id="Group_141" data-name="Group 141" transform="translate(6.293 17.275)">
            <path id="Path_76" data-name="Path 76" d="M1762.5,1594.129s-.974,5.138-1.1,6.286-.214,5.552-.279,6.27-.429,9.384-.772,10.449h2.268s1.741-6.3,1.741-9.282,1.345-6.48,2.213-8.447,2.855-2.013,3.389-5.662C1769.952,1593.742,1763.218,1592.972,1762.5,1594.129Z" transform="translate(-1760.342 -1593.491)" fill="#3c4145"/>
          </g>
          <g id="Group_142" data-name="Group 142" transform="translate(9.872 0.19)">
            <path id="Path_77" data-name="Path 77" d="M1827.206,1289.6s-1.787-.667-2.612.693-.745,4.085.156,4.42a2.315,2.315,0,0,0,2.716-.692,6.822,6.822,0,0,0,.858-2.905A1.793,1.793,0,0,0,1827.206,1289.6Z" transform="translate(-1824.022 -1289.435)" fill="#eea886"/>
          </g>
          <g id="Group_143" data-name="Group 143" transform="translate(10.848 3.736)">
            <path id="Path_78" data-name="Path 78" d="M1841.455,1354.185a1.5,1.5,0,0,1-.047.7c-.119.231,2.249.237,2.249.237a15.608,15.608,0,0,1,.556-2.316C1844.577,1351.745,1841.455,1354.185,1841.455,1354.185Z" transform="translate(-1841.403 -1352.538)" fill="#eea886"/>
          </g>
          <g id="Group_144" data-name="Group 144" transform="translate(10.079)">
            <path id="Path_79" data-name="Path 79" d="M1831.292,1290.053s-.163.27-.83.165-1.481-.992-1.76-1.089-.281-.261-.281-.261l-.175.255-.3.019s.27-.794-.137-1.117.422-2.569,2.562-1.822c0,0,1.643.453,1.583,1.387A5.2,5.2,0,0,1,1831.292,1290.053Z" transform="translate(-1827.714 -1286.05)" fill="#fccca2"/>
          </g>
          <g id="Group_145" data-name="Group 145" transform="translate(10.712 5.406)">
            <path id="Path_80" data-name="Path 80" d="M1838.98,1382.906s.008-.441.207-.483a14.267,14.267,0,0,1,2.452-.139v.514S1841.167,1383.089,1838.98,1382.906Z" transform="translate(-1838.98 -1382.257)" fill="#e2d2ca"/>
          </g>
          <g id="Group_146" data-name="Group 146" transform="translate(10.778 2.137)">
            <path id="Path_81" data-name="Path 81" d="M1840.21,1324.424c.037-.157.436-.6.588-.125s-.23,1.124-.444,1.069S1840.116,1324.821,1840.21,1324.424Z" transform="translate(-1840.158 -1324.083)" fill="#eea886"/>
          </g>
          <g id="Group_147" data-name="Group 147" transform="translate(3.27 5.946)">
            <path id="Path_82" data-name="Path 82" d="M1713.971,1391.983s-1.1.4-2.374.937a2.675,2.675,0,0,0-1.624,2.166c-.084.859-1,5.419-1.17,5.8s-2.2,6.584-2.271,6.712a5.134,5.134,0,0,0,1.77.788c.114-.057,1.964-5.653,2.15-6.067,0,0,1.065-3.355,1.093-3.855,0,0,.031,1.425.088,1.825s-.947,8.169-.918,8.384,4.563.487,6.378.287a22.2,22.2,0,0,0,3.279-.618s-1.428-6.131-1.384-6.811c.1-1.481.59-4.271.59-4.271l1.48,2.79-1.894,4.873.434,1.481s3.52-5.319,3.634-5.8a2.617,2.617,0,0,0-.358-1.5c-.186-.4-1.406-3.445-1.692-3.874s-.769-2.146-1.936-2.623a18.214,18.214,0,0,0-2.614-.727Z" transform="translate(-1706.528 -1391.875)" fill="#29ced9"/>
          </g>
          <g id="Group_148" data-name="Group 148" transform="translate(0 16.572)">
            <rect id="Rectangle_28" data-name="Rectangle 28" width="8.56" height="5.972" transform="matrix(0.969, 0.248, -0.248, 0.969, 1.483, 0)" fill="#d6d6d6"/>
          </g>
          <g id="Group_149" data-name="Group 149" transform="translate(2.211 22.939)">
            <path id="Path_83" data-name="Path 83" d="M1688.023,1694.295s-.237.383-.323.492.213.178.341.067S1688.023,1694.295,1688.023,1694.295Z" transform="translate(-1687.684 -1694.295)" fill="#c98462"/>
          </g>
          <g id="Group_150" data-name="Group 150" transform="translate(2.531 21.546)">
            <path id="Path_84" data-name="Path 84" d="M1695.126,1672.192a.919.919,0,0,0,.17-.239s.042-.175.078-.3a.881.881,0,0,1,.033-.093,1.691,1.691,0,0,0,.19-.5c.036-.236.14-1.3.14-1.3l-.642-.162-.516-.109a10.574,10.574,0,0,0-1.174,1.328.6.6,0,0,0-.014.063,2.12,2.12,0,0,0,.016.442c0,.037,0,.406.089.475a.36.36,0,0,0,.341.082.86.86,0,0,0,.443.167.536.536,0,0,0,.465.086S1694.985,1672.283,1695.126,1672.192Z" transform="translate(-1693.38 -1669.491)" fill="#de9d7d"/>
          </g>
          <g id="Group_151" data-name="Group 151" transform="translate(3.272 16.864)">
            <path id="Path_85" data-name="Path 85" d="M1710.079,1586.852s-1.472,4.457-1.742,4.925a4.854,4.854,0,0,1-1.77-.789l1.616-4.81Z" transform="translate(-1706.567 -1586.178)" fill="#1ba7b1"/>
          </g>
        </g>
        <g id="Group_174" data-name="Group 174" transform="translate(374.936 373.695)">
          <g id="Group_154" data-name="Group 154" transform="translate(16.173 20.358)">
            <g id="Group_153" data-name="Group 153">
              <path id="Path_86" data-name="Path 86" d="M2320.565,1672.2s-.06-1.026-.332-1.186-.115.158-.115.158.153.745.187,1.047A1.542,1.542,0,0,0,2320.565,1672.2Z" transform="translate(-2320.073 -1670.965)" fill="#1d3b54"/>
            </g>
          </g>
          <path id="Path_87" data-name="Path 87" d="M2200.026,1308.661a2.245,2.245,0,0,1,2.483,2.472c-.07,2.685-.5,3.089,0,4.986s-2.488-1.077-2.488-1.077Z" transform="translate(-2190.595 -1308.657)" fill="#434343"/>
          <path id="Path_88" data-name="Path 88" d="M2054.062,1417.984s-3.615,2.256-3.921,2.016a18.043,18.043,0,0,1-1.589-3.2l-.91.433s1.085,4.948,2.547,4.584a27.842,27.842,0,0,0,4.818-2.44Z" transform="translate(-2046.777 -1410.726)" fill="#eea987"/>
          <path id="Path_89" data-name="Path 89" d="M2160.942,1597.059a11.789,11.789,0,0,1,1.271,1.99,10.256,10.256,0,0,1,.811,3.874c-.073,1.345-.516,3.87-.387,4.441s.258,1.75.4,2.156a9.377,9.377,0,0,1,.746,2.8c.056,1.216-.774,6.56-.737,7.058s-.94.2-.94.2-.332-4.828-.516-5.657-.405-3.648-.572-3.852a9.432,9.432,0,0,1-.549-2.635c.07-.332-1.81-5.307-1.92-6.3s-2.882-4.077-2.882-4.077A8.614,8.614,0,0,1,2160.942,1597.059Z" transform="translate(-2148.73 -1580.465)" fill="#eea987"/>
          <path id="Path_90" data-name="Path 90" d="M2127.415,1591.847a5.575,5.575,0,0,1-.1.687,55.563,55.563,0,0,0-1.456,6.689,35.736,35.736,0,0,1-.516,3.724,7.991,7.991,0,0,0,.166,2.008c.11.332-.553,8.164-.608,8.348s.443.239.792.184,2.119-5.749,2.009-6.708a11.542,11.542,0,0,1,.092-3.832c.313-.83,3.133-6.838,3.151-7.206S2132.162,1589.024,2127.415,1591.847Z" transform="translate(-2119.688 -1575.254)" fill="#eea987"/>
          <path id="Path_91" data-name="Path 91" d="M2255.563,1990.5a3.934,3.934,0,0,1-.19.81c-.1.174-.372,1.058-.5,1.223s-.4,1.4,0,1.553,1.33.4,1.644-.1a2.036,2.036,0,0,0,.306-1.371c-.05-.38-.427-2.124-.421-2.3S2255.563,1990.5,2255.563,1990.5Z" transform="translate(-2242.172 -1951.97)" fill="#eea987"/>
          <path id="Path_92" data-name="Path 92" d="M2253.014,2024.409s-.042.963.685.963,1.049-.876,1.049-.876a1.882,1.882,0,0,1,0,1.347c-.248.917-1.28.727-1.511.694S2251.909,2026.214,2253.014,2024.409Z" transform="translate(-2240.151 -1984.191)" fill="#eb4747"/>
          <path id="Path_93" data-name="Path 93" d="M2072.214,1978.957a4.579,4.579,0,0,1-.819,1.106c-.38.232-1.119.977-1.377,1.011s-1.185.2-1.005.722c.146.429,2.357.368,2.607.153s.995-.986,1.3-.969.189,1.112.189,1.112h.327s.114-1.066.128-1.249c.041-.542-.346-.941-.363-1.251s-.035-.54-.035-.54Z" transform="translate(-2066.926 -1941.292)" fill="#eb4747"/>
          <path id="Path_94" data-name="Path 94" d="M2088.61,1980.1a1.764,1.764,0,0,0,1.29-.07,6.891,6.891,0,0,1,2.018-.815s-.208-.635-.212-.706-.027-.405-.027-.405l-.941-.151a8.139,8.139,0,0,1-.879,1.107A15.357,15.357,0,0,0,2088.61,1980.1Z" transform="translate(-2085.443 -1940.348)" fill="#eea987"/>
          <path id="Path_95" data-name="Path 95" d="M2134.726,1600.408s-.263,1.092-.359,1.41-.717,5.249-.871,8.334a24.166,24.166,0,0,0,8.831,1.175s.125-5.667-.346-7.27a7.793,7.793,0,0,0-1.962-3.566C2139.448,1600.08,2134.726,1600.408,2134.726,1600.408Z" transform="translate(-2127.807 -1583.897)" fill="#c9ab73"/>
          <g id="Group_156" data-name="Group 156" transform="translate(14.966 18.584)">
            <g id="Group_155" data-name="Group 155">
              <path id="Path_96" data-name="Path 96" d="M2299.031,1640.084a7.577,7.577,0,0,1-.215.9c-.14.444-.268.585-.212.839.042.192.259.336.314.275s.081-.807.39-.8-.092.924.092.856.893-.455.848-.831-.328-.648-.31-1.21a1.208,1.208,0,0,0-.142-.722Z" transform="translate(-2298.59 -1639.39)" fill="#eea987"/>
            </g>
          </g>
          <g id="Group_158" data-name="Group 158" transform="translate(0.619 5.766)">
            <g id="Group_157" data-name="Group 157">
              <path id="Path_97" data-name="Path 97" d="M2043.277,1411.788s.431.561.7.62.555-.574.555-.574l-.157-.57Z" transform="translate(-2043.277 -1411.264)" fill="#eea886"/>
            </g>
          </g>
          <g id="Group_160" data-name="Group 160" transform="translate(0 3.982)">
            <g id="Group_159" data-name="Group 159">
              <path id="Path_98" data-name="Path 98" d="M2033.938,1381.65s.207-.647.235-.746a1.231,1.231,0,0,0-.256-.671,5.937,5.937,0,0,0-.481-.647c-.041-.041-.063-.086-.2-.026a.561.561,0,0,0-.215.186.341.341,0,0,0-.288.159.3.3,0,0,0-.259.206s-.185.01-.223.16a2.253,2.253,0,0,1,.093.388,4.742,4.742,0,0,0,.527,1.179S2033.316,1382.22,2033.938,1381.65Z" transform="translate(-2032.253 -1379.53)" fill="#eea886"/>
            </g>
          </g>
          <g id="Group_162" data-name="Group 162" transform="translate(0.287 5.163)">
            <g id="Group_161" data-name="Group 161">
              <path id="Path_99" data-name="Path 99" d="M2038.282,1400.647a1.674,1.674,0,0,0-.248.363c-.026.1-.676-.283-.676-.283S2037.961,1400.385,2038.282,1400.647Z" transform="translate(-2037.358 -1400.548)" fill="#cf8c6c"/>
            </g>
          </g>
          <g id="Group_164" data-name="Group 164" transform="translate(0 4.021)">
            <g id="Group_163" data-name="Group 163">
              <path id="Path_100" data-name="Path 100" d="M2033.47,1380.3s.359.762.239.828a.215.215,0,0,1-.2.017l-.019.382a.22.22,0,0,1-.378,0s-.121.245-.308-.014c0,0-.152.126-.26.021a2.822,2.822,0,0,1-.287-.619s.011-.126.223-.16a.292.292,0,0,1,.259-.206.441.441,0,0,1,.335-.209.333.333,0,0,1,.366-.11A.411.411,0,0,1,2033.47,1380.3Z" transform="translate(-2032.253 -1380.223)" fill="#db9c7c"/>
            </g>
          </g>
          <g id="Group_166" data-name="Group 166" transform="translate(0.922 4.824)">
            <g id="Group_165" data-name="Group 165">
              <path id="Path_101" data-name="Path 101" d="M2049.653,1395.012a2.865,2.865,0,0,0-.766-.488c-.075-.024-.152-.033-.2.027s-.027.21.154.385a2.112,2.112,0,0,1,.333.485S2049.412,1395.548,2049.653,1395.012Z" transform="translate(-2048.663 -1394.506)" fill="#eea886"/>
            </g>
          </g>
          <g id="Group_167" data-name="Group 167" transform="translate(0.817 3.983)">
            <path id="Path_102" data-name="Path 102" d="M2046.787,1379.708a7.057,7.057,0,0,1,.44.885c0,.093.292-.065.291-.145a6.681,6.681,0,0,0-.364-.849A.228.228,0,0,0,2046.787,1379.708Z" transform="translate(-2046.787 -1379.544)" fill="#eea886"/>
          </g>
          <g id="Group_168" data-name="Group 168" transform="translate(0.386 2.914)">
            <path id="Path_103" data-name="Path 103" d="M2040,1361.786s-.709-1.323-.814-1.275c-.151.07-.111.436.487,1.424C2040.259,1362.9,2040,1361.786,2040,1361.786Z" transform="translate(-2039.115 -1360.51)" fill="#eea886"/>
          </g>
          <path id="Path_104" data-name="Path 104" d="M2133.922,1434.564l-1.46-1.937s2.61-2.021,3.415-.736A2.744,2.744,0,0,1,2133.922,1434.564Z" transform="translate(-2126.832 -1424.563)" fill="#323657"/>
          <path id="Path_105" data-name="Path 105" d="M2142.807,1429.009a5.368,5.368,0,0,0,.428,1.423c.055.235,0,.774.069,1.313a33.292,33.292,0,0,1,.207,3.842c-.069.733,5.028.4,5.415.18a8.125,8.125,0,0,1-.881-2.171,2.086,2.086,0,0,1,.221-1.4c.19-.263.541-1.1.893-1.71h0c.136-.237.279-.474.378-.65h0a2.466,2.466,0,0,0,.2-.5s.227-2.819-.4-3.137a3.167,3.167,0,0,0-1.562-.4,4.406,4.406,0,0,1-1.009-.152l-1.424.152a8.226,8.226,0,0,1-1.271.345c-.36.028-.815.8-.774,1.3S2142.765,1428.359,2142.807,1429.009Z" transform="translate(-2136.593 -1419.076)" fill="#323657"/>
          <g id="Group_170" data-name="Group 170" transform="translate(15.265 20.456)">
            <g id="Group_169" data-name="Group 169">
              <path id="Path_106" data-name="Path 106" d="M2304.3,1672.7s-.411.105-.387,1.5l.466-.078a4.783,4.783,0,0,1,.131-1.189S2304.489,1672.663,2304.3,1672.7Z" transform="translate(-2303.915 -1672.7)" fill="#1d3b54"/>
            </g>
          </g>
          <g id="Group_172" data-name="Group 172" transform="translate(13.944 21.242)">
            <g id="Group_171" data-name="Group 171">
              <path id="Path_107" data-name="Path 107" d="M2280.408,1687.725l3.63-1.03-.011,4.471-3.612,2.165Z" transform="translate(-2280.408 -1686.696)" fill="#1d3b54"/>
            </g>
          </g>
          <g id="Group_173" data-name="Group 173" transform="translate(13.951 21.242)">
            <path id="Path_108" data-name="Path 108" d="M2280.528,1693.331l.455.084,3.513-2.185-.043-4.514-.3-.021Z" transform="translate(-2280.528 -1686.696)" fill="#1d3b54"/>
          </g>
          <path id="Path_109" data-name="Path 109" d="M2241.536,1430.887a1.939,1.939,0,0,1,1.641.991,10.046,10.046,0,0,1,.691,2.419c.125.373.449,2.568.574,2.886a24.967,24.967,0,0,1,1.043,3.692,24.183,24.183,0,0,1,.217,2.45l-.907-.029s-.9-3.309-1.21-4.1c-.265-.673-.367-1.849-.519-2.264s-1.092-3.331-1.286-3.538S2240.572,1431.071,2241.536,1430.887Z" transform="translate(-2229.39 -1424.019)" fill="#eea886"/>
          <path id="Path_110" data-name="Path 110" d="M2238.417,1434.89l2.3-.726s-.706-3.4-2.674-3.307C2236.468,1430.93,2238.417,1434.89,2238.417,1434.89Z" transform="translate(-2225.901 -1423.989)" fill="#323657"/>
          <path id="Path_111" data-name="Path 111" d="M2158.783,1313.153a2.169,2.169,0,0,0-2.49,1.716,5.263,5.263,0,0,0,.068.83c.069.37-.371,1.386-.293,1.447a2.326,2.326,0,0,0,.415.167s.24,1.193.645,1.229a3.37,3.37,0,0,0,2.853-1.453C2160.864,1315.741,2161.338,1313.571,2158.783,1313.153Z" transform="translate(-2149.103 -1312.877)" fill="#eea886"/>
          <path id="Path_112" data-name="Path 112" d="M2185.261,1383.188s.031.167.06.412c.015.126.029.272.038.426a2.854,2.854,0,0,1-.134,1.238s.792.491,1.642-.69a4.78,4.78,0,0,1,.405-2.253C2187.76,1381.542,2185.261,1383.188,2185.261,1383.188Z" transform="translate(-2176.63 -1377.984)" fill="#eea886"/>
          <path id="Path_113" data-name="Path 113" d="M2160.227,1310.669a5.757,5.757,0,0,0,1.961,1.081,2.759,2.759,0,0,1,1.542,1.392s1.784-1.78.708-3.507S2160.229,1308.679,2160.227,1310.669Z" transform="translate(-2153.036 -1308.677)" fill="#434343"/>
          <path id="Path_114" data-name="Path 114" d="M2186.924,1398.573c.015.125.03.272.039.426a4.452,4.452,0,0,0,1.379-1.023A5.074,5.074,0,0,1,2186.924,1398.573Z" transform="translate(-2178.233 -1392.957)" fill="#a77860"/>
          <path id="Path_115" data-name="Path 115" d="M2198.42,1360.729a14.394,14.394,0,0,1,.908,3.441,3.631,3.631,0,0,1,1.518.2S2200.376,1359.425,2198.42,1360.729Z" transform="translate(-2189.083 -1357.597)" fill="#434343"/>
          <path id="Path_116" data-name="Path 116" d="M2182.956,1424.923s-.34,2.08-1.6,1.846-.3-1.76-.3-1.76S2181.546,1424.568,2182.956,1424.923Z" transform="translate(-2172.366 -1418.26)" fill="#eea886"/>
        </g>
        <g id="Group_175" data-name="Group 175" transform="translate(347.714 347.862)">
          <path id="Path_117" data-name="Path 117" d="M1561.07,855.535a6.635,6.635,0,1,1-6.635-6.635A6.608,6.608,0,0,1,1561.07,855.535Z" transform="translate(-1547.8 -848.9)" fill="#eef0f7"/>
          <path id="Path_118" data-name="Path 118" d="M1582.436,907.981a.842.842,0,0,0-.111-.065l-.006,0h0a14.056,14.056,0,0,0-2.828-1.068h0c-.305-.093-.536-.154-.616-.174l-.143-.227a7.032,7.032,0,0,1-.011-.8,2.825,2.825,0,0,0,.571-1.376c.038.029.068-.034.068-.034-.021-.038.32-.871.259-1.059-.035-.107-.105-.093-.161-.062.008-.049.017-.1.025-.153a2.93,2.93,0,0,0-.511-1.99.714.714,0,0,0-.3-.08,2.849,2.849,0,0,0-2.052-.009,2.065,2.065,0,0,0-.6,1.725c.012.105.024.211.036.314a.009.009,0,0,0,0,0c0,.041.01.081.014.121-.054-.033-.125-.05-.164.055a3.163,3.163,0,0,0,.215,1.069s.054.086.1.047c0,0,0,0,0,0a3.059,3.059,0,0,0,.56,1.46c-.016.3-.059.646-.089.869l-.257.268h0l-.041.014v0a15.022,15.022,0,0,0-3.725,1.314.771.771,0,0,0-.223.344,6.636,6.636,0,0,0,10.33.212A2.736,2.736,0,0,0,1582.436,907.981Z" transform="translate(-1571.056 -897.789)" fill="#78c2ff"/>
        </g>
        <g id="Group_183" data-name="Group 183" transform="translate(307.621 347.886)">
          <g id="Group_176" data-name="Group 176" transform="translate(0 1.382)">
            <rect id="Rectangle_29" data-name="Rectangle 29" width="0.119" height="11.212" fill="#e0e0e0"/>
          </g>
          <g id="Group_177" data-name="Group 177" transform="translate(8.448 1.382)">
            <rect id="Rectangle_30" data-name="Rectangle 30" width="0.119" height="11.212" fill="#e0e0e0"/>
          </g>
          <g id="Group_178" data-name="Group 178" transform="translate(16.896 1.382)">
            <rect id="Rectangle_31" data-name="Rectangle 31" width="0.119" height="11.212" fill="#e0e0e0"/>
          </g>
          <g id="Group_179" data-name="Group 179" transform="translate(25.344 1.382)">
            <rect id="Rectangle_32" data-name="Rectangle 32" width="0.119" height="11.212" fill="#e0e0e0"/>
          </g>
          <g id="Group_180" data-name="Group 180" transform="translate(33.791 1.382)">
            <rect id="Rectangle_33" data-name="Rectangle 33" width="0.119" height="11.212" fill="#e0e0e0"/>
          </g>
          <rect id="Rectangle_34" data-name="Rectangle 34" width="1.344" height="0.39" transform="translate(0.059 13.257)" fill="#b8b8b8"/>
          <rect id="Rectangle_35" data-name="Rectangle 35" width="2.023" height="0.292" transform="translate(0.059)" fill="#d9d9d9"/>
          <rect id="Rectangle_36" data-name="Rectangle 36" width="2.87" height="0.292" transform="translate(0.059 0.54)" fill="#d9d9d9"/>
          <rect id="Rectangle_37" data-name="Rectangle 37" width="2.376" height="0.292" transform="translate(8.416)" fill="#d9d9d9"/>
          <rect id="Rectangle_38" data-name="Rectangle 38" width="1.519" height="0.292" transform="translate(8.416 0.54)" fill="#d9d9d9"/>
          <rect id="Rectangle_39" data-name="Rectangle 39" width="1.472" height="0.292" transform="translate(17.015)" fill="#d9d9d9"/>
          <rect id="Rectangle_40" data-name="Rectangle 40" width="1.716" height="0.292" transform="translate(17.015 0.54)" fill="#d9d9d9"/>
          <rect id="Rectangle_41" data-name="Rectangle 41" width="2.144" height="0.292" transform="translate(25.462)" fill="#d9d9d9"/>
          <rect id="Rectangle_42" data-name="Rectangle 42" width="1.716" height="0.292" transform="translate(25.462 0.54)" fill="#d9d9d9"/>
          <rect id="Rectangle_43" data-name="Rectangle 43" width="1.281" height="0.292" transform="translate(33.851)" fill="#d9d9d9"/>
          <rect id="Rectangle_44" data-name="Rectangle 44" width="1.025" height="0.292" transform="translate(33.851 0.54)" fill="#d9d9d9"/>
          <rect id="Rectangle_45" data-name="Rectangle 45" width="1.344" height="0.39" transform="translate(8.507 13.257)" fill="#b8b8b8"/>
          <rect id="Rectangle_46" data-name="Rectangle 46" width="1.344" height="0.39" transform="translate(17.015 13.257)" fill="#b8b8b8"/>
          <rect id="Rectangle_47" data-name="Rectangle 47" width="1.344" height="0.39" transform="translate(25.462 13.257)" fill="#b8b8b8"/>
          <rect id="Rectangle_48" data-name="Rectangle 48" width="1.344" height="0.39" transform="translate(33.91 13.257)" fill="#b8b8b8"/>
          <g id="Group_181" data-name="Group 181" transform="translate(0.059 4.288)">
            <path id="Path_119" data-name="Path 119" d="M866.193,930.633c-2.635,0-4.926-1.024-7.313-2.093-2.948-1.318-6-2.682-10.058-2.308a12.637,12.637,0,0,0-5.658,2.026,8.57,8.57,0,0,1-4.195,1.483c-2.691.092-3.625-.94-3.64-1v-.663h0c0,.011.591,1.17,3.637,1.156a7.531,7.531,0,0,0,3.89-1.4,13.149,13.149,0,0,1,5.908-2.106c4.224-.388,7.347,1.008,10.367,2.359,3.16,1.413,6.176,2.739,9.989,1.589v.545A9.5,9.5,0,0,1,866.193,930.633Z" transform="translate(-835.329 -925.66)" fill="url(#linear-gradient-13)"/>
          </g>
          <g id="Group_182" data-name="Group 182" transform="translate(0.059 2.77)">
            <path id="Path_120" data-name="Path 120" d="M850.377,905.011c-1.945,0-3.488-1.177-5-2.328a12.8,12.8,0,0,0-3.7-2.206c-4.185-1.344-6.326,1.11-6.346,1.132v-.746a3.83,3.83,0,0,1,1.51-.9,7.516,7.516,0,0,1,5.022.031,12.963,12.963,0,0,1,3.885,2.3c2.4,1.833,4.479,3.415,8.083.936,2.73-1.878,5.3-3.667,7.835-4.32a7.79,7.79,0,0,1,7.475,2l-.018.678c-5.134-4.638-9.5-1.7-14.949,2.044A6.69,6.69,0,0,1,850.377,905.011Z" transform="translate(-835.329 -898.646)" fill="url(#linear-gradient-6)"/>
          </g>
        </g>
      </g>
    </g>
  </g>
</svg>
